<svg width="32" height="32" viewBox="0 0 32 32" fill="none" xmlns="http://www.w3.org/2000/svg">
<path opacity="0.4" d="M26.6573 25.271H19.0649C18.3242 25.271 17.7217 25.883 17.7217 26.6355C17.7217 27.3894 18.3242 28 19.0649 28H26.6573C27.398 28 28.0005 27.3894 28.0005 26.6355C28.0005 25.883 27.398 25.271 26.6573 25.271Z" fill="#2F49D1"/>
<path d="M13.7454 9.20514L20.9398 15.0186C21.1134 15.1576 21.143 15.4127 21.0076 15.5905L12.4783 26.7043C11.9422 27.3908 11.152 27.7792 10.3054 27.7936L5.64928 27.8509C5.40095 27.8538 5.18366 27.6818 5.12723 27.4352L4.06901 22.8344C3.88558 21.9887 4.06901 21.1144 4.60517 20.4408L13.1767 9.27393C13.315 9.09477 13.5704 9.06324 13.7454 9.20514Z" fill="#2F49D1"/>
<path opacity="0.4" d="M24.1607 11.5539L22.7737 13.2853C22.6341 13.4616 22.3829 13.4903 22.2094 13.3498C20.5233 11.9853 16.2057 8.4838 15.0078 7.51345C14.8329 7.37012 14.8089 7.115 14.95 6.93727L16.2876 5.27608C17.501 3.71378 19.6174 3.57045 21.3247 4.93208L23.2859 6.49438C24.0902 7.12503 24.6263 7.95634 24.8098 8.83065C25.0214 9.7924 24.7956 10.7369 24.1607 11.5539Z" fill="#2F49D1"/>
</svg>
