<svg width="40" height="40" viewBox="0 0 40 40" fill="none" xmlns="http://www.w3.org/2000/svg">
<path d="M39.2039 20.1714C39.2039 18.8811 39.0679 17.8852 38.8786 16.8919H20.0006V23.6663H31.3514C29.3569 36.0166 7.6152 34.9892 7.6152 19.7141C7.6152 8.71441 20.7871 3.49308 27.9677 10.3016L33.3965 5.16695C21.0831 -6.20066 0 2.31848 0 19.7141C0 45.1507 39.2039 46.6564 39.2039 20.1714Z" fill="white"/>
</svg>
