<svg width="32" height="32" viewBox="0 0 32 32" fill="none" xmlns="http://www.w3.org/2000/svg">
<path fill-rule="evenodd" clip-rule="evenodd" d="M11.3753 3.91553C14.2885 2.22287 17.8692 2.25245 20.755 3.99303C23.6125 5.76906 25.3491 8.93874 25.3329 12.3484C25.2664 15.7358 23.4042 18.9198 21.0765 21.3813C19.733 22.8084 18.23 24.0703 16.5983 25.1412C16.4302 25.2384 16.2462 25.3034 16.0552 25.3332C15.8713 25.3253 15.6923 25.271 15.5342 25.1751C13.0431 23.5659 10.8576 21.5119 9.08295 19.1118C7.59796 17.1083 6.75428 14.6878 6.66651 12.1791C6.66458 8.76283 8.46219 5.6082 11.3753 3.91553ZM13.0587 13.593C13.5487 14.801 14.7054 15.589 15.9886 15.589C16.8293 15.5951 17.6374 15.2584 18.2329 14.6539C18.8284 14.0494 19.1618 13.2274 19.1588 12.3711C19.1633 11.064 18.3937 9.883 17.2095 9.37962C16.0252 8.87623 14.6599 9.14972 13.7509 10.0724C12.8419 10.995 12.5686 12.3849 13.0587 13.593Z" fill="#2F49D1"/>
<ellipse opacity="0.4" cx="15.9997" cy="27.9998" rx="6.66667" ry="1.33333" fill="#2F49D1"/>
</svg>
