<svg width="32" height="32" viewBox="0 0 32 32" fill="none" xmlns="http://www.w3.org/2000/svg">
<path d="M15.9957 20.2324C10.245 20.2324 5.33301 21.1391 5.33301 24.7658C5.33301 28.3938 10.2143 29.3324 15.9957 29.3324C21.7463 29.3324 26.6583 28.4271 26.6583 24.7991C26.6583 21.1711 21.7783 20.2324 15.9957 20.2324Z" fill="#2F49D1"/>
<path opacity="0.4" d="M15.9959 16.778C19.9133 16.778 23.0519 13.638 23.0519 9.72202C23.0519 5.80602 19.9133 2.66602 15.9959 2.66602C12.0799 2.66602 8.93994 5.80602 8.93994 9.72202C8.93994 13.638 12.0799 16.778 15.9959 16.778Z" fill="#2F49D1"/>
</svg>
