<svg width="915" height="337" viewBox="0 0 915 337" fill="none" xmlns="http://www.w3.org/2000/svg">
<path fill-rule="evenodd" clip-rule="evenodd" d="M347 0C347 13.8071 335.807 25 322 25C308.193 25 297 13.8071 297 0H15C6.71573 0 0 6.71572 0 15V322C0 330.284 6.71571 337 15 337H297C297 323.193 308.193 312 322 312C335.807 312 347 323.193 347 337H900C908.284 337 915 330.284 915 322V15C915 6.71573 908.284 0 900 0H347Z" fill="white"/>
</svg>
