<svg width="232" height="45" viewBox="0 0 232 45" fill="none" xmlns="http://www.w3.org/2000/svg">
<rect x="30" width="15" height="15" fill="#E7E7E7"/>
<rect width="15" height="15" transform="matrix(-1 0 0 1 62.9033 0)" fill="#F1F1F1"/>
<rect x="15" width="15" height="15" fill="#F1F1F1"/>
<rect width="15" height="15" transform="matrix(-1 0 0 1 77.9033 0)" fill="white"/>
<rect width="15" height="15" fill="white"/>
<rect x="30" y="30" width="15" height="15" transform="rotate(-90 30 30)" fill="#DEDEDE"/>
<rect width="15" height="15" transform="matrix(-1.19249e-08 -1 -1 1.19249e-08 62.9033 30)" fill="#E7E7E7"/>
<rect x="30" y="45" width="15" height="15" transform="rotate(-90 30 45)" fill="#D7D5D5"/>
<path d="M106.384 15.82H99.4245V12.64H117.274V15.82H110.284V34H106.384V15.82ZM125.466 18.49C126.046 18.49 126.546 18.57 126.966 18.73L126.936 22.15C126.296 21.89 125.636 21.76 124.956 21.76C123.676 21.76 122.696 22.13 122.016 22.87C121.356 23.61 121.026 24.59 121.026 25.81V34H117.306V23.14C117.306 21.54 117.226 20.11 117.066 18.85H120.576L120.876 21.52C121.256 20.54 121.856 19.79 122.676 19.27C123.496 18.75 124.426 18.49 125.466 18.49ZM129.054 18.85H132.774V34H129.054V18.85ZM132.984 11.98V15.67H128.814V11.98H132.984ZM145.516 18.46C146.816 18.46 147.966 18.8 148.966 19.48C149.986 20.14 150.776 21.08 151.336 22.3C151.916 23.5 152.206 24.88 152.206 26.44C152.206 28 151.926 29.37 151.366 30.55C150.806 31.73 150.016 32.64 148.996 33.28C147.996 33.92 146.836 34.24 145.516 34.24C144.416 34.24 143.436 34.01 142.576 33.55C141.716 33.07 141.056 32.41 140.596 31.57V40.48H136.876V23.14C136.876 21.54 136.796 20.11 136.636 18.85H140.146L140.446 21.46C140.846 20.52 141.496 19.79 142.396 19.27C143.296 18.73 144.336 18.46 145.516 18.46ZM144.496 31.3C145.756 31.3 146.726 30.88 147.406 30.04C148.086 29.2 148.426 28 148.426 26.44C148.426 24.86 148.086 23.63 147.406 22.75C146.726 21.85 145.766 21.4 144.526 21.4C143.246 21.4 142.266 21.83 141.586 22.69C140.906 23.55 140.566 24.78 140.566 26.38C140.566 27.96 140.906 29.18 141.586 30.04C142.266 30.88 143.236 31.3 144.496 31.3ZM173.329 34H169.249L166.519 26.89C166.279 26.23 165.909 25.77 165.409 25.51C164.909 25.25 164.259 25.12 163.459 25.12H159.589V34H155.749V12.64H164.899C167.319 12.64 169.159 13.17 170.419 14.23C171.679 15.29 172.309 16.81 172.309 18.79C172.309 20.21 171.929 21.42 171.169 22.42C170.429 23.4 169.369 24.1 167.989 24.52C169.249 24.78 170.159 25.66 170.719 27.16L173.329 34ZM164.359 22.12C165.819 22.12 166.899 21.85 167.599 21.31C168.299 20.77 168.649 19.95 168.649 18.85C168.649 17.77 168.299 16.97 167.599 16.45C166.919 15.91 165.839 15.64 164.359 15.64H159.529V22.12H164.359ZM176.544 18.85H180.264V34H176.544V18.85ZM180.474 11.98V15.67H176.304V11.98H180.474ZM199.006 18.85V33.52C199.006 35.88 198.356 37.67 197.056 38.89C195.756 40.11 193.846 40.72 191.326 40.72C188.986 40.72 186.926 40.23 185.146 39.25L185.746 36.4C187.586 37.36 189.416 37.84 191.236 37.84C193.936 37.84 195.286 36.5 195.286 33.82V30.82C194.826 31.64 194.156 32.31 193.276 32.83C192.396 33.33 191.406 33.58 190.306 33.58C188.986 33.58 187.806 33.27 186.766 32.65C185.746 32.01 184.946 31.12 184.366 29.98C183.806 28.82 183.526 27.5 183.526 26.02C183.526 24.54 183.806 23.23 184.366 22.09C184.946 20.93 185.746 20.04 186.766 19.42C187.806 18.78 188.986 18.46 190.306 18.46C191.426 18.46 192.416 18.7 193.276 19.18C194.156 19.64 194.826 20.29 195.286 21.13V18.85H199.006ZM191.296 30.64C192.536 30.64 193.506 30.23 194.206 29.41C194.926 28.59 195.286 27.46 195.286 26.02C195.286 24.58 194.936 23.45 194.236 22.63C193.536 21.81 192.556 21.4 191.296 21.4C190.056 21.4 189.076 21.81 188.356 22.63C187.656 23.45 187.306 24.58 187.306 26.02C187.306 27.46 187.656 28.59 188.356 29.41C189.076 30.23 190.056 30.64 191.296 30.64ZM211.728 18.46C215.348 18.46 217.158 20.54 217.158 24.7V34H213.408V24.88C213.408 23.68 213.178 22.81 212.718 22.27C212.258 21.71 211.548 21.43 210.588 21.43C209.448 21.43 208.528 21.8 207.828 22.54C207.128 23.26 206.778 24.22 206.778 25.42V34H203.058V11.92H206.778V21.04C207.298 20.22 207.988 19.59 208.848 19.15C209.708 18.69 210.668 18.46 211.728 18.46ZM225.904 21.67V28.45C225.904 30.23 226.734 31.12 228.394 31.12C228.854 31.12 229.354 31.04 229.894 30.88V33.85C229.234 34.09 228.434 34.21 227.494 34.21C225.774 34.21 224.454 33.73 223.534 32.77C222.614 31.81 222.154 30.43 222.154 28.63V21.67H219.244V18.85H222.154V15.16L225.904 13.9V18.85H229.924V21.67H225.904Z" fill="white"/>
</svg>
